[
  {
    "title": "Peru-cusco",
    "thumb": "https://tripandtravelblog.com/wp-content/uploads/2014/09/This-llama-got-to-Machu-Picchu-before-you.jpg",
    "genre": "Um sitio cheio de lamas , calor/frio e muitas montanhas",
    "runtime": 200,
    "watched": 0, 
    "wishlist": false
  },
  {
    "title": "Brasil-curitiba",
    "thumb": "https://image.freepik.com/fotos-gratis/jardim-botnico-curitiba-brasil_2447765.jpg",
    "genre": "Um local muita floresta com calor e humidade como esperado do brasil",
    "runtime": 300,
    "watched": 0,
    "wishlist": false
  },

  {
    "title": "Mexico-méxico city",
    "thumb": "https://media-cdn.tripadvisor.com/media/photo-o/03/9b/2f/da/mexico-city.jpg",
    "genre": "uma zona perigosa com grandes comidas picantes e deserto",
    "runtime": 150,
    "watched": 0,
    "wishlist": false
  },

  {

    "title": "Venezuela-caracas",
    "thumb": "https://thumb1.shutterstock.com/display_pic_with_logo/173148608/611942573/stock-photo-caracas-venezuela-611942573.jpg",
    "genre": "Um sitio que inspira qualquer um a revoltar-se daquele calor",
    "runtime": 100,
    "watched": 0,
    "wishlist": false

  }

]
